Intro al uso de {tidymodels}
…
---

```r
lm_prediccion <- ml_ajuste %>%
                 predict(testeo_bake) %>%
                 bind_cols(testeo_bake) 

lm_prediccion
```

```
## # A tibble: 66 x 10
##    .pred largo_pico_mm alto_pico_mm largo_aleta_mm masa_corporal_g
##    <dbl>         <dbl>        <dbl>          <int>           <int>
##  1 3537.          36.7         19.3            193            3450
##  2 4035.          34.6         21.1            198            4400
##  3 3796.          38.2         18.1            185            3950
##  4 3849.          40.6         18.6            183            3550
##  5 3344.          36.5         18              182            3150
##  6 3340.          37           16.9            185            3000
##  7 3952.          39.6         18.8            190            4600
##  8 3361.          34.5         18.1            187            2900
##  9 3345.          37.6         17              185            3600
## 10 3970.          41.6         18              192            3950
## # … with 56 more rows, and 5 more variables: especie_Barbijo <dbl>,
## #   especie_Papúa <dbl>, isla_Dream <dbl>, isla_Torgersen <dbl>,
## #   sexo_macho <dbl>
```
…
